{
  "classifierPath" : "meta::external::shared::format::binding::Binding",
  "content" : {
    "_type" : "binding",
    "contentType" : "application/x.flatdata",
    "includedStores" : [ ],
    "modelUnit" : {
      "packageableElementExcludes" : [ ],
      "packageableElementIncludes" : [ "ExampleTemplate::ExCsv" ]
    },
    "name" : "ExCsvBinding",
    "package" : "ExampleTemplate",
    "schemaSet" : "ExampleTemplate::ExCsvSchema"
  }
}