{
  "classifierPath" : "meta::external::shared::format::metamodel::SchemaSet",
  "content" : {
    "_type" : "externalFormatSchemaSet",
    "format" : "FlatData",
    "name" : "ExCsvSchema",
    "package" : "ExampleTemplate",
    "schemas" : [ {
      "content" : "section default: DelimitedWithHeadings\r\n{\r\n  scope.untilEof;\r\n  delimiter: ',';\r\n\r\n  Record\r\n  {\r\n    SubmissionId: STRING;\r\n    PricingDate: DATE;\r\n    PricingRegion: STRING;\r\n    PricingTime: DATETIME;\r\n    AssetType: STRING;\r\n    Underlying: STRING;\r\n    Derivative: STRING;\r\n    SubmissionDataType: STRING;\r\n    Ccy: STRING;\r\n    OptionExpiryDate: DATE;\r\n    ReferenceType: STRING;\r\n    OptionStyle: STRING;\r\n    Collateral: STRING;\r\n    QuoteType: STRING;\r\n    OptionStrike: DECIMAL;\r\n    OptionType: STRING;\r\n    SubmissionData: DECIMAL;\r\n  }\r\n}",
      "id" : "default"
    } ]
  }
}